Horizons · juliaastro.org/EphemerisSources.jl
…
julia> using Dates, HorizonsEphemeris
julia> ephemeris("earth", now())(t = [2.460526571970104e6], cal = InlineStrings.String31[" A.D. 2024-Aug-04 01:43:38.2170"], x = [0.6701785179905526], y = [-0.6973862500798254], z = [-0.302101902069103], ẋ = [0.01254773179541365], ẏ = [0.0104708991798911], ż = [0.004539125400691323])
The output of ephemeris is a NamedTuple, so you can easily pass it along to DataFrames.jl for convenient inspection & data processing. Note the wrt keyword argument as well; it is a simplified interface to the Horizons API CENTER argument.

julia> using DataFrames
julia> data = DataFrame(
           ephemeris("earth", now() - Year(50), now() + Year(5), Day(1); wrt="jupiter")
       )20090×8 DataFrame
   Row │ t          cal                              x         y         z     ⋯
       │ Float64    String31                         Float64   Float64   Float ⋯
───────┼────────────────────────────────────────────────────────────────────────
     1 │ 2.44226e6   A.D. 1974-Aug-04 01:43:40.4210  -4.02321  0.927162   0.09 ⋯
     2 │ 2.44226e6   A.D. 1974-Aug-05 01:43:40.4210  -4.0132   0.931174   0.09
     3 │ 2.44227e6   A.D. 1974-Aug-06 01:43:40.4210  -4.00336  0.935392   0.09
     4 │ 2.44227e6   A.D. 1974-Aug-07 01:43:40.4210  -3.99371  0.939815   0.09
     5 │ 2.44227e6   A.D. 1974-Aug-08 01:43:40.4210  -3.98425  0.944439   0.09 ⋯
     6 │ 2.44227e6   A.D. 1974-Aug-09 01:43:40.4210  -3.97499  0.949261   0.09
     7 │ 2.44227e6   A.D. 1974-Aug-10 01:43:40.4210  -3.96592  0.954278   0.09
     8 │ 2.44227e6   A.D. 1974-Aug-11 01:43:40.4210  -3.95704  0.959486   0.09
   ⋮   │     ⋮                     ⋮                    ⋮         ⋮          ⋮ ⋱
 20084 │ 2.46235e6   A.D. 2029-Jul-29 01:43:40.4210   5.293    1.92215   -0.11 ⋯
 20085 │ 2.46235e6   A.D. 2029-Jul-30 01:43:40.4210   5.30285  1.93844   -0.11
 20086 │ 2.46235e6   A.D. 2029-Jul-31 01:43:40.4210   5.31253  1.95495   -0.11
 20087 │ 2.46235e6   A.D. 2029-Aug-01 01:43:40.4210   5.32203  1.97168   -0.11
 20088 │ 2.46235e6   A.D. 2029-Aug-02 01:43:40.4210   5.33134  1.98863   -0.11 ⋯
 20089 │ 2.46235e6   A.D. 2029-Aug-03 01:43:40.4210   5.34046  2.0058    -0.11
 20090 │ 2.46235e6   A.D. 2029-Aug-04 01:43:40.4210   5.34938  2.02318   -0.11
                                                4 columns and 20075 rows omitted
…
