Horizons · EphemerisSources.jl
…
julia> using Dates, HorizonsEphemeris
julia> ephemeris("earth", now())(t = [2.460536462997581e6], cal = InlineStrings.String31[" A.D. 2024-Aug-13 23:06:42.9910"], x = [0.7842778500258284], y = [-0.5846816683804494], z = [-0.2532423248941446], ẋ = [0.01046904081129034], ẏ = [0.01226286281414892], ż = [0.005315931588219167])
The output of ephemeris is a NamedTuple, so you can easily pass it along to DataFrames.jl for convenient inspection & data processing. Note the wrt keyword argument as well; it is a simplified interface to the Horizons API CENTER argument.

julia> using DataFrames
julia> data = DataFrame(
           ephemeris("earth", now() - Year(50), now() + Year(5), Day(1); wrt="jupiter")
       )20090×8 DataFrame
   Row │ t          cal                              x           y          z  ⋯
       │ Float64    String31                         Float64     Float64    Fl ⋯
───────┼────────────────────────────────────────────────────────────────────────
     1 │ 2.44227e6   A.D. 1974-Aug-13 23:06:46.5360  -5.88301e8  1.45946e8   1 ⋯
     2 │ 2.44227e6   A.D. 1974-Aug-14 23:06:46.5360  -5.87095e8  1.46833e8   1
     3 │ 2.44228e6   A.D. 1974-Aug-15 23:06:46.5360  -5.85921e8  1.47745e8   1
     4 │ 2.44228e6   A.D. 1974-Aug-16 23:06:46.5360  -5.8478e8   1.48683e8   1
     5 │ 2.44228e6   A.D. 1974-Aug-17 23:06:46.5360  -5.83673e8  1.49646e8   1 ⋯
     6 │ 2.44228e6   A.D. 1974-Aug-18 23:06:46.5360  -5.826e8    1.50634e8   1
     7 │ 2.44228e6   A.D. 1974-Aug-19 23:06:46.5360  -5.81561e8  1.51645e8   1
     8 │ 2.44228e6   A.D. 1974-Aug-20 23:06:46.5360  -5.80557e8  1.52679e8   1
   ⋮   │     ⋮                     ⋮                     ⋮           ⋮         ⋱
 20084 │ 2.46236e6   A.D. 2029-Aug-07 23:06:46.5360   8.05162e8  3.13079e8  -1 ⋯
 20085 │ 2.46236e6   A.D. 2029-Aug-08 23:06:46.5360   8.06346e8  3.15829e8  -1
 20086 │ 2.46236e6   A.D. 2029-Aug-09 23:06:46.5360   8.07497e8  3.18609e8  -1
 20087 │ 2.46236e6   A.D. 2029-Aug-10 23:06:46.5360   8.08615e8  3.21418e8  -1
 20088 │ 2.46236e6   A.D. 2029-Aug-11 23:06:46.5360   8.097e8    3.24254e8  -1 ⋯
 20089 │ 2.46236e6   A.D. 2029-Aug-12 23:06:46.5360   8.10751e8  3.27118e8  -1
 20090 │ 2.46236e6   A.D. 2029-Aug-13 23:06:46.5360   8.11767e8  3.30009e8  -1
                                                4 columns and 20075 rows omitted
…
