HORIZONS · ephemeris.loopy.codes
…
julia> using Dates, HorizonsEphemeris
julia> ephemeris("earth", now())(t = [2.460397612353866e6], cal = InlineStrings.String31[" A.D. 2024-Mar-28 02:41:47.3740"], x = [-0.9969073947010939], y = [-0.124081163730999], z = [-0.05355606043477916], ẋ = [0.001991039432579442], ẏ = [-0.01570786842027064], ż = [-0.00680861012182821])
The output of ephemeris is a NamedTuple, so you can easily pass it along to DataFrames.jl for convenient inspection & data processing. Note the wrt keyword argument as well; it is a simplified interface to the HORIZONS API CENTER argument.

julia> using DataFrames
julia> data = DataFrame(
           ephemeris("earth", now() - Year(50), now() + Year(5), Day(1); wrt="jupiter")
       )20090×8 DataFrame
   Row │ t          cal                              x         y        z      ⋯
       │ Float64    String31                         Float64   Float64  Float6 ⋯
───────┼────────────────────────────────────────────────────────────────────────
     1 │ 2.44213e6   A.D. 1974-Mar-28 02:41:49.7330  -5.28035  2.47925   0.085 ⋯
     2 │ 2.44214e6   A.D. 1974-Mar-29 02:41:49.7330  -5.28208  2.45533   0.085
     3 │ 2.44214e6   A.D. 1974-Mar-30 02:41:49.7330  -5.28351  2.43145   0.085
     4 │ 2.44214e6   A.D. 1974-Mar-31 02:41:49.7330  -5.28464  2.40762   0.085
     5 │ 2.44214e6   A.D. 1974-Apr-01 02:41:49.7330  -5.28547  2.38383   0.085 ⋯
     6 │ 2.44214e6   A.D. 1974-Apr-02 02:41:49.7330  -5.28599  2.3601    0.085
     7 │ 2.44214e6   A.D. 1974-Apr-03 02:41:49.7330  -5.28622  2.33642   0.086
     8 │ 2.44214e6   A.D. 1974-Apr-04 02:41:49.7330  -5.28616  2.31281   0.086
   ⋮   │     ⋮                     ⋮                    ⋮         ⋮         ⋮  ⋱
 20084 │ 2.46222e6   A.D. 2029-Mar-22 02:41:49.7330   4.10837  1.88832  -0.122 ⋯
 20085 │ 2.46222e6   A.D. 2029-Mar-23 02:41:49.7330   4.10608  1.87778  -0.122
 20086 │ 2.46222e6   A.D. 2029-Mar-24 02:41:49.7330   4.10409  1.86725  -0.122
 20087 │ 2.46222e6   A.D. 2029-Mar-25 02:41:49.7330   4.10239  1.85674  -0.122
 20088 │ 2.46222e6   A.D. 2029-Mar-26 02:41:49.7330   4.10097  1.84624  -0.122 ⋯
 20089 │ 2.46222e6   A.D. 2029-Mar-27 02:41:49.7330   4.09984  1.83577  -0.121
 20090 │ 2.46222e6   A.D. 2029-Mar-28 02:41:49.7330   4.09899  1.82534  -0.121
                                                4 columns and 20075 rows omitted
…
