Horizons · EphemerisSources.jl
…
julia> using Dates, HorizonsEphemeris
julia> ephemeris("earth", now())(t = [2.460536498320232e6], cal = InlineStrings.String31[" A.D. 2024-Aug-13 23:57:34.8680"], x = [0.7846475034132808], y = [-0.5842484092665791], z = [-0.2530545078401331], ẋ = [0.01046106337669671], ẏ = [0.01226865422256843], ż = [0.005318437339884069])
The output of ephemeris is a NamedTuple, so you can easily pass it along to DataFrames.jl for convenient inspection & data processing. Note the wrt keyword argument as well; it is a simplified interface to the Horizons API CENTER argument.

julia> using DataFrames
julia> data = DataFrame(
           ephemeris("earth", now() - Year(50), now() + Year(5), Day(1); wrt="jupiter")
       )20090×8 DataFrame
   Row │ t          cal                              x           y          z  ⋯
       │ Float64    String31                         Float64     Float64    Fl ⋯
───────┼────────────────────────────────────────────────────────────────────────
     1 │ 2.44227e6   A.D. 1974-Aug-13 23:57:38.2110  -5.88258e8  1.45977e8   1 ⋯
     2 │ 2.44227e6   A.D. 1974-Aug-14 23:57:38.2110  -5.87053e8  1.46864e8   1
     3 │ 2.44228e6   A.D. 1974-Aug-15 23:57:38.2110  -5.8588e8   1.47778e8   1
     4 │ 2.44228e6   A.D. 1974-Aug-16 23:57:38.2110  -5.84741e8  1.48717e8   1
     5 │ 2.44228e6   A.D. 1974-Aug-17 23:57:38.2110  -5.83635e8  1.49681e8   1 ⋯
     6 │ 2.44228e6   A.D. 1974-Aug-18 23:57:38.2110  -5.82562e8  1.50669e8   1
     7 │ 2.44228e6   A.D. 1974-Aug-19 23:57:38.2110  -5.81525e8  1.51681e8   1
     8 │ 2.44228e6   A.D. 1974-Aug-20 23:57:38.2110  -5.80522e8  1.52716e8   1
   ⋮   │     ⋮                     ⋮                     ⋮           ⋮         ⋱
 20084 │ 2.46236e6   A.D. 2029-Aug-07 23:57:38.2110   8.05204e8  3.13175e8  -1 ⋯
 20085 │ 2.46236e6   A.D. 2029-Aug-08 23:57:38.2110   8.06387e8  3.15927e8  -1
 20086 │ 2.46236e6   A.D. 2029-Aug-09 23:57:38.2110   8.07537e8  3.18708e8  -1
 20087 │ 2.46236e6   A.D. 2029-Aug-10 23:57:38.2110   8.08654e8  3.21517e8  -1
 20088 │ 2.46236e6   A.D. 2029-Aug-11 23:57:38.2110   8.09738e8  3.24355e8  -1 ⋯
 20089 │ 2.46236e6   A.D. 2029-Aug-12 23:57:38.2110   8.10787e8  3.2722e8   -1
 20090 │ 2.46236e6   A.D. 2029-Aug-13 23:57:38.2110   8.11802e8  3.30111e8  -1
                                                4 columns and 20075 rows omitted
…
