Horizons · EphemerisSources.jl
…
julia> using Dates, HorizonsEphemeris
julia> ephemeris("earth", now())(t = [2.460533236085069e6], cal = InlineStrings.String31[" A.D. 2024-Aug-10 17:39:57.7500"], x = [0.7493357410154683], y = [-0.6233790111928517], z = [-0.2700181342828712], ẋ = [0.01118247378387551], ẏ = [0.01171513323403498], ż = [0.005078800887242897])
The output of ephemeris is a NamedTuple, so you can easily pass it along to DataFrames.jl for convenient inspection & data processing. Note the wrt keyword argument as well; it is a simplified interface to the Horizons API CENTER argument.

julia> using DataFrames
julia> data = DataFrame(
           ephemeris("earth", now() - Year(50), now() + Year(5), Day(1); wrt="jupiter")
       )20090×8 DataFrame
   Row │ t          cal                              x           y          z  ⋯
       │ Float64    String31                         Float64     Float64    Fl ⋯
───────┼────────────────────────────────────────────────────────────────────────
     1 │ 2.44227e6   A.D. 1974-Aug-10 17:40:01.1950  -5.92408e8  1.43272e8   1 ⋯
     2 │ 2.44227e6   A.D. 1974-Aug-11 17:40:01.1950  -5.91101e8  1.4407e8    1
     3 │ 2.44227e6   A.D. 1974-Aug-12 17:40:01.1950  -5.89824e8  1.44896e8   1
     4 │ 2.44227e6   A.D. 1974-Aug-13 17:40:01.1950  -5.88579e8  1.45749e8   1
     5 │ 2.44227e6   A.D. 1974-Aug-14 17:40:01.1950  -5.87366e8  1.46629e8   1 ⋯
     6 │ 2.44228e6   A.D. 1974-Aug-15 17:40:01.1950  -5.86184e8  1.47536e8   1
     7 │ 2.44228e6   A.D. 1974-Aug-16 17:40:01.1950  -5.85036e8  1.48468e8   1
     8 │ 2.44228e6   A.D. 1974-Aug-17 17:40:01.1950  -5.83921e8  1.49426e8   1
   ⋮   │     ⋮                     ⋮                     ⋮           ⋮         ⋱
 20084 │ 2.46235e6   A.D. 2029-Aug-04 17:40:01.1950   8.01126e8  3.04408e8  -1 ⋯
 20085 │ 2.46235e6   A.D. 2029-Aug-05 17:40:01.1950   8.02411e8  3.07061e8  -1
 20086 │ 2.46236e6   A.D. 2029-Aug-06 17:40:01.1950   8.03665e8  3.09745e8  -1
 20087 │ 2.46236e6   A.D. 2029-Aug-07 17:40:01.1950   8.04888e8  3.12459e8  -1
 20088 │ 2.46236e6   A.D. 2029-Aug-08 17:40:01.1950   8.0608e8   3.15203e8  -1 ⋯
 20089 │ 2.46236e6   A.D. 2029-Aug-09 17:40:01.1950   8.07239e8  3.17976e8  -1
 20090 │ 2.46236e6   A.D. 2029-Aug-10 17:40:01.1950   8.08365e8  3.20778e8  -1
                                                4 columns and 20075 rows omitted
…
