HORIZONS · ephemeris.loopy.codes
…
julia> using Dates, HorizonsEphemeris
julia> ephemeris("earth", now())(t = [2.460512614373484e6], cal = InlineStrings.String31[" A.D. 2024-Jul-21 02:44:41.8690"], x = [0.4781266890160727], y = [-0.823082104943205], z = [-0.3565812875362913], ẋ = [0.01483807295977806], ẏ = [0.007466868299072738], ż = [0.003236378496194411])
The output of ephemeris is a NamedTuple, so you can easily pass it along to DataFrames.jl for convenient inspection & data processing. Note the wrt keyword argument as well; it is a simplified interface to the HORIZONS API CENTER argument.

julia> using DataFrames
julia> data = DataFrame(
           ephemeris("earth", now() - Year(50), now() + Year(5), Day(1); wrt="jupiter")
       )20090×8 DataFrame
   Row │ t          cal                              x         y         z     ⋯
       │ Float64    String31                         Float64   Float64   Float ⋯
───────┼────────────────────────────────────────────────────────────────────────
     1 │ 2.44225e6   A.D. 1974-Jul-21 02:44:44.1430  -4.1801   0.894348   0.09 ⋯
     2 │ 2.44225e6   A.D. 1974-Jul-22 02:44:44.1430  -4.16791  0.895174   0.09
     3 │ 2.44225e6   A.D. 1974-Jul-23 02:44:44.1430  -4.15586  0.896247   0.09
     4 │ 2.44225e6   A.D. 1974-Jul-24 02:44:44.1430  -4.14393  0.897563   0.09
     5 │ 2.44225e6   A.D. 1974-Jul-25 02:44:44.1430  -4.13215  0.899122   0.09 ⋯
     6 │ 2.44225e6   A.D. 1974-Jul-26 02:44:44.1430  -4.12051  0.900918   0.09
     7 │ 2.44226e6   A.D. 1974-Jul-27 02:44:44.1430  -4.10901  0.902949   0.09
     8 │ 2.44226e6   A.D. 1974-Jul-28 02:44:44.1430  -4.09767  0.905212   0.09
   ⋮   │     ⋮                     ⋮                    ⋮         ⋮          ⋮ ⋱
 20084 │ 2.46233e6   A.D. 2029-Jul-15 02:44:44.1430   5.13884  1.71965   -0.11 ⋯
 20085 │ 2.46233e6   A.D. 2029-Jul-16 02:44:44.1430   5.1508   1.73255   -0.11
 20086 │ 2.46233e6   A.D. 2029-Jul-17 02:44:44.1430   5.16263  1.7457    -0.11
 20087 │ 2.46234e6   A.D. 2029-Jul-18 02:44:44.1430   5.17434  1.75912   -0.11
 20088 │ 2.46234e6   A.D. 2029-Jul-19 02:44:44.1430   5.18591  1.77278   -0.11 ⋯
 20089 │ 2.46234e6   A.D. 2029-Jul-20 02:44:44.1430   5.19734  1.7867    -0.11
 20090 │ 2.46234e6   A.D. 2029-Jul-21 02:44:44.1430   5.20863  1.80086   -0.11
                                                4 columns and 20075 rows omitted
…
